<svg version="1.1" id="Capa_1" xmlns="http://www.w3.org/2000/svg" xmlns:xlink="http://www.w3.org/1999/xlink" x="0px" y="0px"
	 viewBox="0 0 119.88 119.88" style="enable-background:new 0 0 119.88 119.88;" xml:space="preserve">
<g>
	<path d="M92.652,119.88H28.47c-6.042,0-10.956-4.914-10.956-10.952L8.423,66.246c-3.435-1.703-5.691-5.177-5.691-9.056
		c0-5.669,4.611-10.276,10.276-10.276h93.864c5.665,0,10.276,4.607,10.276,10.276c0,3.317-1.601,6.354-4.278,8.266l-9.337,44.166
		C103.608,114.966,98.694,119.88,92.652,119.88z M13.008,53.653c-1.948,0-3.536,1.588-3.536,3.536c0,1.536,1.11,2.896,2.703,3.3
		c1.242,0.316,2.194,1.316,2.457,2.571l9.547,45.175c0.075,3.018,1.966,4.905,4.291,4.905h64.182c2.325,0,4.217-1.887,4.217-4.212
		l9.71-46.289c0.211-1.018,0.882-1.878,1.808-2.334c1.246-0.605,2.023-1.808,2.023-3.115c0-1.948-1.588-3.536-3.537-3.536H13.008z"
		/>
	<path d="M37.123,100.121c0,1.304-1.067,2.371-2.371,2.371h-0.653c-1.304,0-2.371-1.067-2.371-2.371V72.368
		c0-1.304,1.067-2.371,2.371-2.371h0.653c1.304,0,2.371,1.067,2.371,2.371V100.121z"/>
	<path d="M54.483,100.121c0,1.304-1.067,2.371-2.371,2.371h-0.653c-1.304,0-2.372-1.067-2.372-2.371V72.368
		c0-1.304,1.067-2.371,2.372-2.371h0.653c1.304,0,2.371,1.067,2.371,2.371V100.121z"/>
	<path d="M71.844,100.121c0,1.304-1.067,2.371-2.371,2.371h-0.654c-1.304,0-2.371-1.067-2.371-2.371V72.368
		c0-1.304,1.067-2.371,2.371-2.371h0.654c1.304,0,2.371,1.067,2.371,2.371V100.121z"/>
	<path d="M89.205,100.121c0,1.304-1.067,2.371-2.371,2.371H86.18c-1.304,0-2.372-1.067-2.372-2.371V72.368
		c0-1.304,1.068-2.371,2.372-2.371h0.653c1.304,0,2.371,1.067,2.371,2.371V100.121z"/>
	<path d="M28.027,34.868c2.25-15.669,15.69-27.723,31.98-27.723c16.291,0,29.732,12.055,31.982,27.723c0.328,5.35,7.22,4.494,7.22,0
		C96.915,15.24,80.253,0,60.008,0c-20.244,0-36.907,15.24-39.2,34.868C20.807,40.433,28.115,40.647,28.027,34.868z"/>
</g>
<g>
</g>
<g>
</g>
<g>
</g>
<g>
</g>
<g>
</g>
<g>
</g>
<g>
</g>
<g>
</g>
<g>
</g>
<g>
</g>
<g>
</g>
<g>
</g>
<g>
</g>
<g>
</g>
<g>
</g>
</svg>